<svg width="134" height="53" viewBox="0 0 134 53" fill="none" xmlns="http://www.w3.org/2000/svg">
<g opacity="0.4">
<path d="M28.0358 18.6945H27.6143C26.185 18.6945 24.9145 18.5479 23.8028 18.2547C22.6911 17.9493 21.8054 17.5706 21.1458 17.1186C20.4861 16.6544 19.9425 16.1108 19.5149 15.4878C19.0873 14.8525 18.7941 14.2417 18.6353 13.6553C18.4887 13.0567 18.4154 12.4459 18.4154 11.8229V11.3098C18.4154 10.6623 18.4887 10.0515 18.6353 9.47735C18.7819 8.89097 19.069 8.29237 19.4966 7.68155C19.9364 7.05852 20.4983 6.52712 21.1824 6.08733C21.8787 5.63533 22.8133 5.26884 23.9861 4.98786C25.171 4.69467 26.5331 4.54808 28.0724 4.54808H28.7871C30.3752 4.54808 31.7678 4.67635 32.965 4.93289C34.1744 5.17722 35.1029 5.48262 35.7503 5.84911C36.41 6.20338 36.9414 6.63706 37.3446 7.15015C37.7599 7.65101 38.0287 8.10912 38.1508 8.52448C38.273 8.92761 38.3402 9.35518 38.3524 9.80719V9.82551H32.9284C32.9039 9.71556 32.8612 9.61173 32.8001 9.514C32.7512 9.40405 32.6291 9.25745 32.4336 9.07421C32.2382 8.89097 31.9938 8.73826 31.7006 8.6161C31.4197 8.48172 30.9982 8.36567 30.4362 8.26794C29.8743 8.15799 29.2329 8.10302 28.5122 8.10302C25.3726 8.10302 23.8028 9.22691 23.8028 11.4747V11.6763C23.8028 12.6414 24.1876 13.4599 24.9572 14.1317C25.7269 14.7914 26.8996 15.1213 28.4755 15.1213C29.1474 15.1213 29.7582 15.0785 30.308 14.993C30.8577 14.8953 31.2975 14.7792 31.6273 14.6448C31.9694 14.5105 32.2565 14.3639 32.4886 14.205C32.7329 14.0462 32.8978 13.8996 32.9833 13.7653C33.0811 13.6309 33.1299 13.5148 33.1299 13.4171H28.3473V10.7601H38.444V18.438H35.164C35.0174 17.7172 34.8036 17.0881 34.5226 16.5506C33.2277 17.9799 31.0654 18.6945 28.0358 18.6945ZM51.2011 12.8307L48.9106 8.13966L46.675 12.8307H51.2011ZM53.9314 18.438L52.8686 16.2391H45.0808L44.0363 18.438H38.7588L45.5022 4.80462H52.5021L59.6303 18.438H53.9314ZM60.0412 18.438V4.80462H72.8683C74.7007 4.80462 75.9957 5.09781 76.7531 5.68419C77.5227 6.25836 77.9075 6.99744 77.9075 7.90145V8.10302C77.9075 8.86042 77.6632 9.46513 77.1745 9.91713C76.6859 10.3569 76.1484 10.644 75.562 10.7784C75.9285 10.8639 76.2644 10.9799 76.5698 11.1265C76.8875 11.2731 77.2173 11.4747 77.5594 11.7313C77.9136 11.9878 78.1885 12.336 78.384 12.7757C78.5916 13.2155 78.6955 13.7164 78.6955 14.2783V14.4982C78.6955 17.1247 76.7775 18.438 72.9416 18.438H60.0412ZM71.2924 7.90145H65.2453V9.82551H71.2924C72.2208 9.82551 72.6851 9.50789 72.6851 8.87264V8.83599C72.6851 8.21296 72.2208 7.90145 71.2924 7.90145ZM71.6222 12.8857H65.2453V15.2312H71.6222C72.6973 15.2312 73.2348 14.8403 73.2348 14.0585V14.0035C73.2348 13.2583 72.6973 12.8857 71.6222 12.8857ZM79.614 4.80462H94.695V8.13966H84.7448V9.84384H94.4934V13.1606H84.7448V15.0296H94.8416V18.438H79.614V4.80462ZM96.1625 4.80462H101.99L109.906 12.5558V4.80462H115.073V18.438H109.869L101.33 10.1737V18.438H96.1625V4.80462Z" fill="white"/>
<path d="M28.0358 18.6945H27.6143C26.185 18.6945 24.9145 18.5479 23.8028 18.2547C22.6911 17.9493 21.8054 17.5706 21.1458 17.1186C20.4861 16.6544 19.9425 16.1108 19.5149 15.4878C19.0873 14.8525 18.7941 14.2417 18.6353 13.6553C18.4887 13.0567 18.4154 12.4459 18.4154 11.8229V11.3098C18.4154 10.6623 18.4887 10.0515 18.6353 9.47735C18.7819 8.89097 19.069 8.29237 19.4966 7.68155C19.9364 7.05852 20.4983 6.52712 21.1824 6.08733C21.8787 5.63533 22.8133 5.26884 23.9861 4.98786C25.171 4.69467 26.5331 4.54808 28.0724 4.54808H28.7871C30.3752 4.54808 31.7678 4.67635 32.965 4.93289C34.1744 5.17722 35.1029 5.48262 35.7503 5.84911C36.41 6.20338 36.9414 6.63706 37.3446 7.15015C37.7599 7.65101 38.0287 8.10912 38.1508 8.52448C38.273 8.92761 38.3402 9.35518 38.3524 9.80719V9.82551H32.9284C32.9039 9.71556 32.8612 9.61173 32.8001 9.514C32.7512 9.40405 32.6291 9.25745 32.4336 9.07421C32.2382 8.89097 31.9938 8.73826 31.7006 8.6161C31.4197 8.48172 30.9982 8.36567 30.4362 8.26794C29.8743 8.15799 29.2329 8.10302 28.5122 8.10302C25.3726 8.10302 23.8028 9.22691 23.8028 11.4747V11.6763C23.8028 12.6414 24.1876 13.4599 24.9572 14.1317C25.7269 14.7914 26.8996 15.1213 28.4755 15.1213C29.1474 15.1213 29.7582 15.0785 30.308 14.993C30.8577 14.8953 31.2975 14.7792 31.6273 14.6448C31.9694 14.5105 32.2565 14.3639 32.4886 14.205C32.7329 14.0462 32.8978 13.8996 32.9833 13.7653C33.0811 13.6309 33.1299 13.5148 33.1299 13.4171H28.3473V10.7601H38.444V18.438H35.164C35.0174 17.7172 34.8036 17.0881 34.5226 16.5506C33.2277 17.9799 31.0654 18.6945 28.0358 18.6945ZM51.2011 12.8307L48.9106 8.13966L46.675 12.8307H51.2011ZM53.9314 18.438L52.8686 16.2391H45.0808L44.0363 18.438H38.7588L45.5022 4.80462H52.5021L59.6303 18.438H53.9314ZM60.0412 18.438V4.80462H72.8683C74.7007 4.80462 75.9957 5.09781 76.7531 5.68419C77.5227 6.25836 77.9075 6.99744 77.9075 7.90145V8.10302C77.9075 8.86042 77.6632 9.46513 77.1745 9.91713C76.6859 10.3569 76.1484 10.644 75.562 10.7784C75.9285 10.8639 76.2644 10.9799 76.5698 11.1265C76.8875 11.2731 77.2173 11.4747 77.5594 11.7313C77.9136 11.9878 78.1885 12.336 78.384 12.7757C78.5916 13.2155 78.6955 13.7164 78.6955 14.2783V14.4982C78.6955 17.1247 76.7775 18.438 72.9416 18.438H60.0412ZM71.2924 7.90145H65.2453V9.82551H71.2924C72.2208 9.82551 72.6851 9.50789 72.6851 8.87264V8.83599C72.6851 8.21296 72.2208 7.90145 71.2924 7.90145ZM71.6222 12.8857H65.2453V15.2312H71.6222C72.6973 15.2312 73.2348 14.8403 73.2348 14.0585V14.0035C73.2348 13.2583 72.6973 12.8857 71.6222 12.8857ZM79.614 4.80462H94.695V8.13966H84.7448V9.84384H94.4934V13.1606H84.7448V15.0296H94.8416V18.438H79.614V4.80462ZM96.1625 4.80462H101.99L109.906 12.5558V4.80462H115.073V18.438H109.869L101.33 10.1737V18.438H96.1625V4.80462Z" fill="white" fill-opacity="0.6"/>
<g filter="url(#filter0_d_326_4232)">
<path fill-rule="evenodd" clip-rule="evenodd" d="M26.7248 30.033L24.9348 30.033V30.0331C24.9348 30.0633 24.9348 30.078 24.9274 30.0852C24.9204 30.092 24.9068 30.092 24.8802 30.092C24.552 31.5116 24.6066 32.9309 24.8802 34.3505C24.9348 34.4689 24.8802 34.5869 24.7707 34.6464C24.6611 34.6464 24.552 34.5874 24.552 34.4689C24.2237 32.9903 24.1688 31.5117 24.552 30.033H22.1443C22.1443 30.0633 22.1443 30.078 22.1369 30.0852C22.1299 30.092 22.1163 30.092 22.0897 30.092C21.7615 31.5116 21.816 32.9309 22.0897 34.3505C22.1443 34.4689 22.0897 34.5869 21.9802 34.6463C21.8706 34.6463 21.7615 34.5873 21.7615 34.4689C21.4332 32.9903 21.3782 31.5116 21.7615 30.033H19.4088V30.033C19.4088 30.0632 19.4088 30.078 19.4014 30.0852C19.3944 30.092 19.3808 30.092 19.3542 30.092C19.026 31.5116 19.0805 32.9309 19.3542 34.3505C19.4088 34.4689 19.3542 34.5869 19.2447 34.6463C19.1351 34.6463 19.026 34.5873 19.026 34.4689C18.6977 32.9902 18.6427 31.5116 19.026 30.0329H16.47C16.3604 29.7965 16.2512 29.5007 16.1963 29.2639C16.1919 29.2545 16.1876 29.2447 16.1831 29.2346L16.1831 29.2346C16.1315 29.1183 16.0649 28.9681 15.8131 28.9681H12.913C12.769 28.9681 12.7094 29.1046 12.6598 29.2181L12.6598 29.2181C12.6528 29.234 12.6461 29.2494 12.6394 29.2639C11.4901 31.9254 11.4356 34.6463 12.6394 37.3078C12.6459 37.3219 12.6524 37.3369 12.6591 37.3523C12.7086 37.466 12.7685 37.6036 12.913 37.6036H15.8131C16.0643 37.6036 16.1309 37.4541 16.1826 37.338C16.1873 37.3276 16.1918 37.3175 16.1963 37.3078C16.2511 37.1895 16.2922 37.0563 16.3332 36.9231C16.3742 36.7901 16.4152 36.657 16.47 36.5387H26.7256L29.1878 41.6253H31.7051V37.6036H34.5107L35.1947 33.4923L31.7042 33.4635V33.1087L36.6007 33.0683L37.205 28.9685H31.7051V24.9468L29.1878 24.9468L26.7256 30.0333L26.7248 30.033ZM109.302 37.6036L97.368 37.6036L98.0115 33.6026L108.506 33.5352C108.643 33.5343 108.754 33.4231 108.754 33.2861C108.754 33.1491 108.643 33.0379 108.506 33.037L99.0726 32.9764L99.7472 28.9685L109.302 28.9685C115.978 29.1459 119.498 30.6246 123 33.4635C116.987 34.4774 113.991 35.2716 109.302 37.6036ZM45.854 37.6406H46.9114C47.7867 37.6406 48.5591 37.5872 49.2285 37.4804C49.9069 37.366 50.4513 37.221 50.8616 37.0455C51.281 36.8624 51.6296 36.6411 51.9074 36.3817C52.1866 36.1146 52.3869 35.8552 52.5085 35.6034C52.6314 35.344 52.7202 35.0578 52.775 34.745L52.8031 34.5848C52.954 33.7226 52.7118 33.0931 52.0764 32.6963C51.4423 32.2919 50.312 32.0668 48.6856 32.021L47.1346 31.9867C46.6169 31.9791 46.2201 31.9447 45.9442 31.8837C45.6696 31.815 45.4971 31.7387 45.4266 31.6548C45.3638 31.5709 45.3438 31.464 45.3665 31.3343L45.3685 31.3229C45.3912 31.1932 45.4441 31.0902 45.5272 31.0139C45.6116 30.9299 45.8063 30.8575 46.1114 30.7964C46.4178 30.7277 46.8421 30.6934 47.3843 30.6934H47.5005C48.8251 30.6934 49.4695 30.9948 49.4337 31.5976H53.024L53.0401 31.506C53.3541 29.7129 51.7604 28.8164 48.2591 28.8164H47.225C46.4426 28.8164 45.7445 28.866 45.1307 28.9652C44.5259 29.0567 44.0282 29.1788 43.6374 29.3314C43.2466 29.484 42.9188 29.6748 42.6541 29.9037C42.3894 30.1326 42.193 30.3691 42.0651 30.6133C41.9384 30.8498 41.8491 31.1169 41.7969 31.4145L41.7789 31.5175C41.493 33.1503 42.757 34.0049 45.571 34.0812L47.1665 34.127C47.7448 34.1422 48.1783 34.188 48.467 34.2643C48.7649 34.333 48.9438 34.4169 49.0039 34.5161C49.0731 34.6077 49.0937 34.7336 49.0656 34.8938L49.0636 34.9052C49.0436 35.0197 48.9984 35.1227 48.9281 35.2143C48.867 35.2982 48.7593 35.3821 48.6052 35.4661C48.4524 35.5424 48.2248 35.6034 47.9224 35.6492C47.6214 35.6873 47.2501 35.7064 46.8086 35.7064H46.704C45.3252 35.7064 44.6749 35.3058 44.7532 34.5047H41.128L41.108 34.6191C40.7552 36.6335 42.3372 37.6406 45.854 37.6406ZM52.8088 37.4804H56.1087L56.7761 33.6692L60.3265 37.4804H64.6257L60.2455 32.8337L65.9541 28.9652H61.8525L57.0106 32.3301L57.5998 28.9652H54.2999L52.8088 37.4804ZM68.0173 37.4804L69.5085 28.9652H66.2202L64.7291 37.4804H68.0173ZM74.0854 28.9652H70.3905L68.8993 37.4804H72.176L73.0799 32.3186L77.5906 37.4804H80.8905L82.3816 28.9652H79.105L78.2572 33.8065L74.0854 28.9652ZM86.6248 37.6406H87.6822C88.5575 37.6406 89.3299 37.5872 89.9993 37.4804C90.6778 37.366 91.2221 37.221 91.6324 37.0455C92.0518 36.8624 92.4004 36.6411 92.6782 36.3817C92.9574 36.1146 93.1577 35.8552 93.2793 35.6034C93.4022 35.344 93.491 35.0578 93.5458 34.745L93.5739 34.5848C93.7248 33.7226 93.4826 33.0931 92.8472 32.6963C92.2131 32.2919 91.0828 32.0668 89.4564 32.021L87.9054 31.9867C87.3877 31.9791 86.991 31.9447 86.715 31.8837C86.4404 31.815 86.2679 31.7387 86.1974 31.6548C86.1346 31.5709 86.1146 31.464 86.1373 31.3343L86.1393 31.3229C86.162 31.1932 86.2149 31.0902 86.298 31.0139C86.3824 30.9299 86.5771 30.8575 86.8822 30.7964C87.1886 30.7277 87.6129 30.6934 88.1551 30.6934H88.2713C89.5959 30.6934 90.2403 30.9948 90.2045 31.5976H93.7949L93.8109 31.506C94.1249 29.7129 92.5312 28.8164 89.0299 28.8164H87.9958C87.2134 28.8164 86.5153 28.866 85.9015 28.9652C85.2968 29.0567 84.799 29.1788 84.4082 29.3314C84.0174 29.484 83.6896 29.6748 83.4249 29.9037C83.1602 30.1326 82.9638 30.3691 82.8359 30.6133C82.7092 30.8498 82.6199 31.1169 82.5678 31.4145L82.5497 31.5175C82.2638 33.1503 83.5278 34.0049 86.3418 34.0812L87.9373 34.127C88.5156 34.1422 88.9491 34.188 89.2379 34.2643C89.5357 34.333 89.7146 34.4169 89.7747 34.5161C89.8439 34.6077 89.8645 34.7336 89.8364 34.8938L89.8344 34.9052C89.8144 35.0197 89.7692 35.1227 89.699 35.2143C89.6378 35.2982 89.5301 35.3821 89.376 35.4661C89.2232 35.5424 88.9956 35.6034 88.6932 35.6492C88.3922 35.6873 88.0209 35.7064 87.5794 35.7064H87.4748C86.096 35.7064 85.4457 35.3058 85.524 34.5047H81.8988L81.8788 34.6191C81.526 36.6335 83.108 37.6406 86.6248 37.6406Z" fill="white"/>
</g>
</g>
<defs>
<filter id="filter0_d_326_4232" x="0.762185" y="13.9521" width="133.232" height="38.6678" filterUnits="userSpaceOnUse" color-interpolation-filters="sRGB">
<feFlood flood-opacity="0" result="BackgroundImageFix"/>
<feColorMatrix in="SourceAlpha" type="matrix" values="0 0 0 0 0 0 0 0 0 0 0 0 0 0 0 0 0 0 127 0" result="hardAlpha"/>
<feOffset/>
<feGaussianBlur stdDeviation="5.49733"/>
<feComposite in2="hardAlpha" operator="out"/>
<feColorMatrix type="matrix" values="0 0 0 0 1 0 0 0 0 0.732078 0 0 0 0 0.0431373 0 0 0 0.24 0"/>
<feBlend mode="normal" in2="BackgroundImageFix" result="effect1_dropShadow_326_4232"/>
<feBlend mode="normal" in="SourceGraphic" in2="effect1_dropShadow_326_4232" result="shape"/>
</filter>
</defs>
</svg>
