<svg width="116" height="36" viewBox="0 0 116 36" fill="none" xmlns="http://www.w3.org/2000/svg">
<path d="M17.9393 0.573486C14.5045 0.573486 11.1469 1.59324 8.29096 3.5038C5.43505 5.41436 3.20914 8.12991 1.89471 11.307C0.580279 14.4842 0.236364 17.9802 0.906454 21.3531C1.57655 24.7259 3.23055 27.824 5.6593 30.2557C8.08805 32.6874 11.1825 34.3434 14.5512 35.0143C17.92 35.6852 21.4118 35.3409 24.5852 34.0248C27.7585 32.7088 30.4708 30.4802 32.379 27.6209C34.2873 24.7615 35.3058 21.3999 35.3058 17.9609C35.3058 15.6776 34.8566 13.4166 33.9838 11.307C33.1111 9.19751 31.8319 7.28073 30.2193 5.66615C28.6066 4.05158 26.6922 2.77083 24.5852 1.89703C22.4782 1.02323 20.2199 0.573486 17.9393 0.573486V0.573486ZM18.2207 18.5329L16.4144 24.6358H26.0764C26.1533 24.636 26.229 24.6541 26.2977 24.6886C26.3663 24.7231 26.426 24.7732 26.4721 24.8347C26.5181 24.8963 26.5492 24.9678 26.5629 25.0435C26.5767 25.1192 26.5726 25.197 26.5511 25.2709L25.7109 28.1688C25.6708 28.3073 25.5869 28.4289 25.4717 28.5154C25.3565 28.6019 25.2164 28.6485 25.0724 28.6483H10.3146L12.81 20.2111L10.05 21.0523L10.6591 19.0797L13.4233 18.2385L16.9269 6.38613C16.9654 6.24724 17.0482 6.12478 17.1628 6.03745C17.2773 5.95011 17.4172 5.9027 17.5612 5.90244H21.3C21.3767 5.90217 21.4525 5.91973 21.5212 5.95374C21.59 5.98775 21.65 6.03728 21.6964 6.09844C21.7429 6.15959 21.7745 6.2307 21.7888 6.30617C21.8031 6.38164 21.7997 6.4594 21.7789 6.53334L18.8383 16.5561L21.5983 15.715L21.0059 17.7212L18.2207 18.5329Z" fill="white"/>
<path d="M43.0426 26.2951H40.7378V7.1355H43.0426V26.2951Z" fill="white"/>
<path d="M48.7368 26.2951H46.4319V12.7986H48.7368V26.2951ZM46.245 9.2186C46.245 8.84439 46.3572 8.52839 46.5814 8.2706C46.814 8.01281 47.1545 7.88392 47.603 7.88392C48.0515 7.88392 48.3921 8.01281 48.6246 8.2706C48.8572 8.52839 48.9735 8.84439 48.9735 9.2186C48.9735 9.59281 48.8572 9.90466 48.6246 10.1541C48.3921 10.4036 48.0515 10.5283 47.603 10.5283C47.1545 10.5283 46.814 10.4036 46.5814 10.1541C46.3572 9.90466 46.245 9.59281 46.245 9.2186Z" fill="white"/>
<path d="M55.0538 9.53045V12.7986H57.5704V14.5823H55.0538V22.9521C55.0538 23.4927 55.1659 23.9001 55.3902 24.1746C55.6144 24.4407 55.9965 24.5737 56.5364 24.5737C56.8022 24.5737 57.1676 24.5238 57.6327 24.424V26.2951C57.0264 26.4614 56.4367 26.5446 55.8636 26.5446C54.8337 26.5446 54.0571 26.2327 53.5338 25.609C53.0106 24.9853 52.7489 24.0997 52.7489 22.9521V14.5823H50.2946V12.7986H52.7489V9.53045H55.0538Z" fill="white"/>
<path d="M65.3576 26.5446C63.5303 26.5446 62.0436 25.9458 60.8974 24.7483C59.7512 23.5426 59.1781 21.9335 59.1781 19.921V19.4969C59.1781 18.1581 59.4314 16.9648 59.9381 15.917C60.4531 14.8609 61.1673 14.0376 62.081 13.4472C63.0029 12.8484 63.9996 12.5491 65.0711 12.5491C66.8236 12.5491 68.1857 13.127 69.1575 14.2829C70.1293 15.4388 70.6152 17.0937 70.6152 19.2474V20.2079H61.483C61.5162 21.5385 61.9024 22.6153 62.6416 23.4386C63.3891 24.2536 64.336 24.661 65.4822 24.661C66.2962 24.661 66.9855 24.4947 67.5503 24.1621C68.1151 23.8295 68.6093 23.3887 69.0329 22.8399L70.4407 23.9376C69.3112 25.6756 67.6168 26.5446 65.3576 26.5446ZM65.0711 14.4451C64.1408 14.4451 63.3601 14.786 62.7288 15.4679C62.0976 16.1415 61.7072 17.0895 61.5577 18.3119H68.3103V18.1373C68.2439 16.9648 67.9283 16.0583 67.3635 15.418C66.7987 14.7694 66.0345 14.4451 65.0711 14.4451Z" fill="white"/>
<path d="M78.1905 24.661C79.0128 24.661 79.7313 24.4116 80.3459 23.9126C80.9605 23.4137 81.3011 22.79 81.3675 22.0416H83.5478C83.5062 22.8149 83.2405 23.5509 82.7504 24.2494C82.2604 24.9479 81.6042 25.5051 80.7819 25.9209C79.968 26.3367 79.1042 26.5446 78.1905 26.5446C76.355 26.5446 74.8931 25.9333 73.8051 24.7109C72.7253 23.4802 72.1855 21.8004 72.1855 19.6716V19.2849C72.1855 17.971 72.4263 16.8026 72.9081 15.7798C73.3898 14.7569 74.0792 13.9628 74.9762 13.3973C75.8815 12.8318 76.9488 12.5491 78.1781 12.5491C79.6897 12.5491 80.9439 13.0023 81.9406 13.9087C82.9456 14.8151 83.4813 15.9918 83.5478 17.4388H81.3675C81.3011 16.5656 80.9688 15.8504 80.3708 15.2933C79.7811 14.7278 79.0502 14.4451 78.1781 14.4451C77.007 14.4451 76.0975 14.8692 75.4496 15.7174C74.8101 16.5573 74.4903 17.7756 74.4903 19.3722V19.8088C74.4903 21.3638 74.8101 22.5613 75.4496 23.4012C76.0892 24.2411 77.0028 24.661 78.1905 24.661Z" fill="white"/>
<path d="M85.0184 19.4221C85.0184 18.0999 85.2759 16.9107 85.7908 15.8546C86.3141 14.7985 87.0367 13.9836 87.9586 13.4098C88.8889 12.836 89.9479 12.5491 91.1356 12.5491C92.9712 12.5491 94.4537 13.1852 95.5833 14.4576C96.7212 15.7299 97.2902 17.4221 97.2902 19.5343V19.6965C97.2902 21.0104 97.0368 22.1912 96.5302 23.239C96.0318 24.2785 95.3134 25.0893 94.3748 25.6714C93.4446 26.2535 92.3731 26.5446 91.1605 26.5446C89.3332 26.5446 87.8507 25.9084 86.7128 24.6361C85.5832 23.3638 85.0184 21.6798 85.0184 19.5842V19.4221ZM87.3357 19.6965C87.3357 21.1933 87.6804 22.395 88.3698 23.3014C89.0675 24.2078 89.9977 24.661 91.1605 24.661C92.3316 24.661 93.2619 24.2037 93.9512 23.2889C94.6406 22.3659 94.9853 21.0769 94.9853 19.4221C94.9853 17.9419 94.6323 16.7444 93.9263 15.8297C93.2286 14.9066 92.2984 14.4451 91.1356 14.4451C89.9977 14.4451 89.0799 14.8983 88.3822 15.8047C87.6845 16.7111 87.3357 18.0084 87.3357 19.6965Z" fill="white"/>
<path d="M102.174 26.2951H99.8696V12.7986H102.174V26.2951ZM99.6827 9.2186C99.6827 8.84439 99.7949 8.52839 100.019 8.2706C100.252 8.01281 100.592 7.88392 101.041 7.88392C101.489 7.88392 101.83 8.01281 102.062 8.2706C102.295 8.52839 102.411 8.84439 102.411 9.2186C102.411 9.59281 102.295 9.90466 102.062 10.1541C101.83 10.4036 101.489 10.5283 101.041 10.5283C100.592 10.5283 100.252 10.4036 100.019 10.1541C99.7949 9.90466 99.6827 9.59281 99.6827 9.2186Z" fill="white"/>
<path d="M107.545 12.7986L107.619 14.495C108.649 13.1977 109.995 12.5491 111.656 12.5491C114.505 12.5491 115.942 14.1582 115.967 17.3764V26.2951H113.662V17.3639C113.654 16.391 113.429 15.6717 112.989 15.206C112.557 14.7403 111.88 14.5074 110.958 14.5074C110.211 14.5074 109.555 14.707 108.99 15.1062C108.425 15.5053 107.985 16.0292 107.669 16.6779V26.2951H105.364V12.7986H107.545Z" fill="white"/>
</svg>
